<?xml version="1.0" encoding="UTF-8" standalone="no"?>
<svg
   xmlns:dc="http://purl.org/dc/elements/1.1/"
   xmlns:cc="http://creativecommons.org/ns#"
   xmlns:rdf="http://www.w3.org/1999/02/22-rdf-syntax-ns#"
   xmlns:svg="http://www.w3.org/2000/svg"
   xmlns="http://www.w3.org/2000/svg"
   viewBox="0 0 666.66669 666.66669"
   height="666.66669"
   width="666.66669"
   xml:space="preserve"
   id="svg2"
   version="1.1"><metadata
     id="metadata8"><rdf:RDF><cc:Work
         rdf:about=""><dc:format>image/svg+xml</dc:format><dc:type
           rdf:resource="http://purl.org/dc/dcmitype/StillImage" /></cc:Work></rdf:RDF></metadata><defs
     id="defs6" /><g
     transform="matrix(1.3333333,0,0,-1.3333333,0,666.66667)"
     id="g10"><g
       transform="scale(0.1)"
       id="g12"><path
         id="path14"
         style="fill:#fafafa;fill-opacity:1;fill-rule:nonzero;stroke:none"
         d="M 0,0 H 5000 V 5000 H 0 Z" /><path
         id="path16"
         style="fill:#b3dcff;fill-opacity:1;fill-rule:nonzero;stroke:none"
         d="m 1542.85,3153.39 c -75.04,0 -136.08,-61.05 -136.08,-136.08 V 1482.3 c 0,-75.04 61.04,-136.09 136.08,-136.09 h 2044.01 c 75.03,0 136.09,61.05 136.09,136.09 v 1535.01 c 0,75.03 -61.06,136.08 -136.09,136.08 H 1542.85 M 3586.86,1337.16 H 1542.85 c -80.03,0 -145.14,65.11 -145.14,145.14 v 1535.01 c 0,80.02 65.11,145.13 145.14,145.13 h 2044.01 c 80.03,0 145.13,-65.11 145.13,-145.13 V 1482.3 c 0,-80.03 -65.1,-145.14 -145.13,-145.14" /><path
         id="path18"
         style="fill:#484e7d;fill-opacity:1;fill-rule:nonzero;stroke:none"
         d="m 4039,2960.01 c 0,0 37.3,-16.82 53.96,-22.66 8.53,-3 28.72,-2.73 47.28,-2.46 17.66,0.25 33.85,0.5 37.15,-2.05 6.78,-5.23 7.06,-25.02 -2.74,-28.48 -9.82,-3.47 -82.68,-21.45 -108.09,-18.88 -12.81,1.29 -30.54,-2.43 -46.33,-6.15 -15.52,-3.65 -29.17,-7.31 -34.46,-6.21 -10.66,2.22 -11.6,62.15 -9.34,75.97 2.25,13.81 62.57,10.92 62.57,10.92" /><path
         id="path20"
         style="fill:#eea886;fill-opacity:1;fill-rule:nonzero;stroke:none"
         d="m 4030.43,2984.03 8.57,-24.02 c 0,0 -44.95,-16.01 -62.57,-10.92 l -5.89,24.48 59.89,10.46" /><path
         id="path22"
         style="fill:#5b639e;fill-opacity:1;fill-rule:nonzero;stroke:none"
         d="m 3938.48,2938.65 c 0,0 35.17,-21.44 51.06,-29.36 15.9,-7.92 77.2,-9.15 83.35,-15.21 6.15,-6.06 4.25,-25.74 -5.88,-27.93 -10.12,-2.19 -84.45,-10.79 -109.4,-5.01 -13.34,3.09 -32.77,1.28 -49.56,-0.52 -14.61,-1.57 -27.21,-3.14 -32.02,-1.49 -10.36,3.57 -4.66,63.19 -0.9,76.62 3.77,13.43 63.35,2.9 63.35,2.9" /><path
         id="path24"
         style="fill:#eea886;fill-opacity:1;fill-rule:nonzero;stroke:none"
         d="m 3933.21,2963.61 5.27,-24.96 c 0,0 -46.41,-10.19 -63.35,-2.9 l -3.15,25.06 61.23,2.8" /><path
         id="path26"
         style="fill:#292c47;fill-opacity:1;fill-rule:nonzero;stroke:none"
         d="m 3580.68,3412.99 c 0,0 160.37,-1.41 180.04,-4.19 21.31,-3.02 104.76,-5.71 114.84,-21 101.7,-154.35 168.08,-407.08 168.08,-407.08 l -80.38,-15.82 c 0,0 -77.73,150.64 -110.29,228.9 -29.23,70.26 -54.25,88.32 -115.64,86.77 -61.38,-1.55 -257.72,11.98 -370.92,26.01 l 214.27,106.41" /><path
         id="path28"
         style="fill:#ff7e55;fill-opacity:1;fill-rule:nonzero;stroke:none"
         d="m 3563.72,3784.76 c 0,0 47.59,-102.42 43.73,-140.46 -3.85,-38.04 -44.77,-143.49 -47.66,-164.68 -2.9,-21.19 17.81,-63.08 17.81,-63.08 l -214.28,-99.19 c 0,0 -8.63,62.71 0,134.93 8.63,72.23 15,149.85 24.53,190.67 32.5,139.28 118.49,197.01 118.49,197.01 l 57.38,-55.2" /><path
         id="path30"
         style="fill:#323657;fill-opacity:1;fill-rule:nonzero;stroke:none"
         d="m 3577.6,3416.54 c 0,0 160.38,-1.41 180.04,-4.19 21.32,-3.02 106.65,-4.47 114.83,-21 58.27,-117.68 71.36,-431.82 71.36,-431.82 l -74.97,-9.06 c 0,0 -31.91,160.34 -48.39,235.36 -8.75,39.81 -41.93,88.09 -87.39,85.42 -61.3,-3.59 -301.83,-63.02 -369.76,46.1 l 214.28,99.19" /><path
         id="path32"
         style="fill:#eea886;fill-opacity:1;fill-rule:nonzero;stroke:none"
         d="m 3439.11,3688.02 c 0.46,19.83 11.98,105.42 60.27,99.57 48.27,-5.86 42.69,-63.78 38.22,-107.46 -4.68,-45.72 -28.4,-157.79 -20.85,-163.56 7.55,-5.76 64.82,-22.97 77.14,-25.43 12.31,-2.46 86.56,-20.68 92.66,-22.38 5.97,-1.66 -5.98,-30.54 -5.98,-30.54 0,0 -205.65,6.03 -240.05,22.33 -34.4,16.3 -1.41,227.47 -1.41,227.47" /><path
         id="path34"
         style="fill:#eea886;fill-opacity:1;fill-rule:nonzero;stroke:none"
         d="m 3686.55,3468.76 c 0,0 15.29,-3.85 22.65,-4.43 7.36,-0.59 42.24,13.25 53.09,11.25 10.84,-2 80.62,-35.68 83.75,-38.04 3.12,-2.36 -1.86,-7 -1.86,-7 l -163.61,5.91 5.98,32.31" /><path
         id="path36"
         style="fill:#807066;fill-opacity:1;fill-rule:nonzero;stroke:none"
         d="m 3890.41,3404.78 -272.08,10.99 1.01,24.92 272.08,-10.99 -1.01,-24.92" /><path
         id="path38"
         style="fill:#807066;fill-opacity:1;fill-rule:nonzero;stroke:none"
         d="m 3982.53,3661.05 -92.03,-256.27 -23.48,8.42 92.03,256.28 23.48,-8.43" /><path
         id="path40"
         style="fill:#eea886;fill-opacity:1;fill-rule:nonzero;stroke:none"
         d="m 3688.51,3946.05 c 0,0 5.13,-42.06 -6.26,-43.82 -9.42,-1.46 -6.1,-42.05 -6.1,-48.47 0,-6.42 -17.65,-4.18 -22.47,-6.42 -4.81,-2.25 -32.2,-42.37 -45.96,-38.52 -13.75,3.85 -65.27,47.94 -74.9,71.18 -9.64,23.24 6.9,104.73 30.33,132.66 23.43,27.93 116.05,6.98 125.36,-66.61" /><path
         id="path42"
         style="fill:#eea886;fill-opacity:1;fill-rule:nonzero;stroke:none"
         d="m 3581.21,3838.59 c 0,0 -1.39,-3.68 -3.43,-9.4 -1.51,-4.21 -3.37,-9.52 -5.31,-15.3 -5.23,-15.65 -10.97,-34.64 -11.4,-43.92 -0.81,-17.33 -54.73,69.98 -54.73,69.98 0,0 19.4,52.59 31.49,114.09 12.08,61.51 43.38,-115.45 43.38,-115.45" /><path
         id="path44"
         style="fill:#d88a51;fill-opacity:1;fill-rule:nonzero;stroke:none"
         d="m 3689.3,3937.06 c 0,0 33.8,30.02 9.96,71.42 -23.83,41.42 -106.97,17.66 -114.92,18.63 -7.94,0.96 -49.42,14.12 -57.46,-65.81 -8.04,-79.93 -2.97,-67.94 -2.97,-67.94 0,0 20.37,34.31 34.91,28.77 14.54,-5.53 39.97,-8.18 39.97,-8.18 0,0 0.48,37.31 21.42,34.43 20.95,-2.89 52.53,3.45 69.09,-11.32" /><path
         id="path46"
         style="fill:#ff7e55;fill-opacity:1;fill-rule:nonzero;stroke:none"
         d="m 3435.44,3684.3 110.23,-3.99 c 0,0 17.12,114.7 -46.24,112.5 -63.37,-2.21 -63.99,-108.51 -63.99,-108.51" /><path
         id="path48"
         style="fill:#eea886;fill-opacity:1;fill-rule:nonzero;stroke:none"
         d="m 3585.68,3940.56 c 0.06,5.11 2.1,26.43 -18.76,21.61 -20.86,-4.82 -8.3,-51.41 -5.61,-53 2.68,-1.59 23.89,-11.72 24.37,31.39" /><path
         id="path50"
         style="fill:#eea886;fill-opacity:1;fill-rule:nonzero;stroke:none"
         d="m 3506.34,3839.96 c 0,0 94.59,-170.94 92.13,-146.71 -1.93,18.94 -42.89,110.43 -42.89,110.43 l -49.24,36.28" /><path
         id="path52"
         style="fill:#a77860;fill-opacity:1;fill-rule:nonzero;stroke:none"
         d="m 3577.78,3829.19 c -1.51,-4.21 -3.37,-9.52 -5.31,-15.3 -19.07,23.73 -32.29,50.58 -36.2,58.94 7.79,-14.18 41.51,-43.64 41.51,-43.64" /><path
         id="path54"
         style="fill:#d6c5bf;fill-opacity:1;fill-rule:nonzero;stroke:none"
         d="m 3577.6,3416.54 -210.7,-127.24 -3.58,28.05 z" /><path
         id="path56"
         style="fill:#869135;fill-opacity:1;fill-rule:nonzero;stroke:none"
         d="m 3002.22,3496.09 c 0,0 27.73,-213.9 -126.82,-378.15 -154.56,-164.24 -503.03,-105.68 -503.03,-105.68 0,0 57.63,194.12 183.98,274.1 126.34,79.98 374.54,107.52 445.87,209.73" /><path
         id="path58"
         style="fill:#48753a;fill-opacity:1;fill-rule:nonzero;stroke:none"
         d="m 2822.41,3901.72 c 0,0 127.4,-239.83 17.96,-501.87 -109.45,-262.03 -546.13,-347.3 -546.13,-347.3 0,0 -18.01,254.33 95.49,404.54 113.51,150.22 393.86,292.57 432.68,444.63" /><path
         id="path60"
         style="fill:#78c2ff;fill-opacity:1;fill-rule:nonzero;stroke:none"
         d="M 1776.91,2911.6 H 952.582 v 9.99 h 824.328 v -9.99" /><path
         id="path62"
         style="fill:#d6d6d6;fill-opacity:1;fill-rule:nonzero;stroke:none"
         d="m 842.211,2500.01 -164.926,257.7 83.77,-37.99 z" /><path
         id="path64"
         style="fill:#e8e8e8;fill-opacity:1;fill-rule:nonzero;stroke:none"
         d="m 842.211,2500.01 -10.063,155.31 -59.921,34.16 z" /><path
         id="path66"
         style="fill:#c2c2c2;fill-opacity:1;fill-rule:nonzero;stroke:none"
         d="M 715.211,2698.44 694.613,2671.3 842.211,2500.01 Z" /><path
         id="path68"
         style="fill:#e3f2ff;fill-opacity:1;fill-rule:nonzero;stroke:none"
         d="M 3827.28,3148.39 V 1613.38 c 0,-77.66 -62.94,-140.61 -140.6,-140.61 H 1642.67 c -77.66,0 -140.61,62.95 -140.61,140.61 v 1535.01 c 0,77.66 62.95,140.61 140.61,140.61 h 2044.01 c 77.66,0 140.6,-62.95 140.6,-140.61" /><path
         id="path70"
         style="fill:#4da8f2;fill-opacity:1;fill-rule:nonzero;stroke:none"
         d="m 3827.28,3148.39 v -39.75 H 1502.06 v 39.75 c 0,77.66 62.95,140.61 140.61,140.61 h 2044.01 c 77.66,0 140.6,-62.95 140.6,-140.61" /><path
         id="path72"
         style="fill:#b3dcff;fill-opacity:1;fill-rule:nonzero;stroke:none"
         d="m 2422.4,2586.04 h -656.19 c -29.99,0 -54.31,24.32 -54.31,54.31 v 171.97 c 0,29.99 24.32,54.31 54.31,54.31 h 656.19 c 29.99,0 54.31,-24.32 54.31,-54.31 v -171.97 c 0,-29.99 -24.32,-54.31 -54.31,-54.31" /><path
         id="path74"
         style="fill:#b3dcff;fill-opacity:1;fill-rule:nonzero;stroke:none"
         d="m 1766.21,2489.5 c -27.45,0 -49.78,-22.33 -49.78,-49.77 v -171.98 c 0,-27.45 22.33,-49.78 49.78,-49.78 h 656.19 c 27.45,0 49.78,22.33 49.78,49.78 v 171.98 c 0,27.44 -22.33,49.77 -49.78,49.77 h -656.19 m 656.19,-280.57 h -656.19 c -32.44,0 -58.83,26.38 -58.83,58.82 v 171.98 c 0,32.43 26.39,58.82 58.83,58.82 h 656.19 c 32.44,0 58.83,-26.39 58.83,-58.82 v -171.98 c 0,-32.44 -26.39,-58.82 -58.83,-58.82" /><path
         id="path76"
         style="fill:#b3dcff;fill-opacity:1;fill-rule:nonzero;stroke:none"
         d="m 3257.54,2076.17 h -594.73 c -7.81,0 -14.14,6.33 -14.14,14.14 v 16.98 c 0,7.82 6.33,14.15 14.14,14.15 h 594.73 c 7.81,0 14.14,-6.33 14.14,-14.15 v -16.98 c 0,-7.81 -6.33,-14.14 -14.14,-14.14" /><path
         id="path78"
         style="fill:#b3dcff;fill-opacity:1;fill-rule:nonzero;stroke:none"
         d="m 3257.54,1911.76 h -594.73 c -7.81,0 -14.14,6.32 -14.14,14.13 v 16.97 c 0,7.81 6.33,14.15 14.14,14.15 h 594.73 c 7.81,0 14.14,-6.34 14.14,-14.15 v -16.97 c 0,-7.81 -6.33,-14.13 -14.14,-14.13" /><path
         id="path80"
         style="fill:#b3dcff;fill-opacity:1;fill-rule:nonzero;stroke:none"
         d="m 2725.99,2862.1 c -40.14,0 -72.79,-32.65 -72.79,-72.78 v -498.56 c 0,-40.14 32.65,-72.79 72.79,-72.79 h 816.09 c 40.13,0 72.78,32.65 72.78,72.79 v 498.56 c 0,40.13 -32.65,72.78 -72.78,72.78 h -816.09 m 816.09,-653.17 h -816.09 c -45.13,0 -81.84,36.7 -81.84,81.83 v 498.56 c 0,45.12 36.71,81.83 81.84,81.83 h 816.09 c 45.12,0 81.84,-36.71 81.84,-81.83 v -498.56 c 0,-45.13 -36.72,-81.83 -81.84,-81.83" /><path
         id="path82"
         style="fill:#4da8f2;fill-opacity:1;fill-rule:nonzero;stroke:none"
         d="m 3507.13,2061.9 -51.69,45.07 c -4.24,3.69 -4.68,10.12 -0.99,14.36 3.69,4.24 10.13,4.69 14.37,0.98 l 36.55,-31.86 52.13,58.14 c 3.75,4.18 10.2,4.54 14.38,0.78 4.18,-3.75 4.54,-10.18 0.79,-14.37 l -65.54,-73.1" /><path
         id="path84"
         style="fill:#4da8f2;fill-opacity:1;fill-rule:nonzero;stroke:none"
         d="m 3507.13,1887.29 -51.69,45.06 c -4.24,3.7 -4.68,10.14 -0.99,14.38 3.69,4.24 10.13,4.68 14.37,0.98 l 36.55,-31.87 52.13,58.14 c 3.75,4.19 10.2,4.55 14.38,0.8 4.18,-3.76 4.54,-10.2 0.79,-14.39 l -65.54,-73.1" /><path
         id="path86"
         style="fill:#b3dcff;fill-opacity:1;fill-rule:nonzero;stroke:none"
         d="m 3257.54,1737.15 h -594.73 c -7.81,0 -14.14,6.33 -14.14,14.13 v 16.98 c 0,7.8 6.33,14.13 14.14,14.13 h 594.73 c 7.81,0 14.14,-6.33 14.14,-14.13 v -16.98 c 0,-7.8 -6.33,-14.13 -14.14,-14.13" /><path
         id="path88"
         style="fill:#4da8f2;fill-opacity:1;fill-rule:nonzero;stroke:none"
         d="m 3507.13,1712.69 -51.69,45.06 c -4.24,3.7 -4.68,10.13 -0.99,14.37 3.69,4.24 10.13,4.68 14.37,0.99 l 36.55,-31.88 52.13,58.15 c 3.75,4.18 10.2,4.54 14.38,0.78 4.18,-3.75 4.54,-10.19 0.79,-14.38 l -65.54,-73.09" /><path
         id="path90"
         style="fill:#e4f3fe;fill-opacity:1;fill-rule:nonzero;stroke:none"
         d="m 1502.06,3045.59 h -92.34 c 10.22,48.13 45.96,86.95 92.34,101.56 v -101.56 m -101.58,0 h -277.51 c -63.9,0 -115.7,51.8 -115.7,115.7 v 712.26 c 0,63.9 51.8,115.7 115.7,115.7 h 1226.02 c 63.9,0 115.7,-51.8 115.7,-115.7 v -336.16 c -28.79,-26.57 -54.57,-53.31 -74.96,-80.3 -37.09,-49.08 -60.13,-109.27 -74.35,-168.09 h -672.71 c -74.88,0 -136.08,-58.52 -140.37,-132.32 -51.51,-15.01 -91.26,-57.86 -101.82,-111.09" /><path
         id="path92"
         style="fill:#d8edff;fill-opacity:1;fill-rule:nonzero;stroke:none"
         d="m 1409.72,3045.59 h -9.24 c 10.56,53.23 50.31,96.08 101.82,111.09 -0.16,-2.75 -0.24,-5.5 -0.24,-8.29 v -1.24 c -46.38,-14.61 -82.12,-53.43 -92.34,-101.56" /><path
         id="path94"
         style="fill:#c6dcde;fill-opacity:1;fill-rule:nonzero;stroke:none"
         d="m 2464.69,3289 h -149.31 c 14.22,58.82 37.26,119.01 74.35,168.09 20.39,26.99 46.17,53.73 74.96,80.3 V 3289" /><path
         id="path96"
         style="fill:#e1f1ff;fill-opacity:1;fill-rule:nonzero;stroke:none"
         d="m 2348.99,3045.59 h -846.93 v 102.8 c 0,2.79 0.08,5.54 0.24,8.29 4.29,73.8 65.49,132.32 140.37,132.32 h 672.71 149.31 -822.02 c -77.66,0 -140.61,-62.95 -140.61,-140.61 v -39.75 h 949.98 c -19.16,-37.43 -58.11,-63.05 -103.05,-63.05" /><path
         id="path98"
         style="fill:#c7e5fd;fill-opacity:1;fill-rule:nonzero;stroke:none"
         d="m 2452.04,3108.64 h -949.98 v 39.75 c 0,77.66 62.95,140.61 140.61,140.61 h 822.02 v -127.71 c 0,-18.96 -4.56,-36.86 -12.65,-52.65" /><path
         id="path100"
         style="fill:#78c2ff;fill-opacity:1;fill-rule:nonzero;stroke:none"
         d="m 1186.25,3650.74 c 0.67,52.53 25.94,99.01 64.7,128.6 28.24,21.58 63.61,34.2 101.87,33.72 70.34,-0.9 129.79,-45.84 152.48,-108.28 l 0.04,-0.09 c 5.38,-14.85 8.69,-30.69 9.58,-47.17 0.19,-3.64 0.25,-7.31 0.22,-11.02 -0.48,-37.17 -13.28,-71.29 -34.41,-98.56 -30.52,-39.37 -78.49,-64.44 -132.13,-63.75 -17.73,0.23 -34.74,3.25 -50.65,8.64 -65.69,22.21 -112.62,84.78 -111.7,157.91 z m 94.11,-209.91 c 21.2,-7.2 43.9,-11.21 67.52,-11.52 71.54,-0.91 135.54,32.52 176.25,85 28.22,36.38 45.26,81.91 45.87,131.5 0.08,4.92 -0.02,9.83 -0.27,14.68 -1.18,22.02 -5.61,43.19 -12.83,63.05 -30.24,83.25 -109.54,143.19 -203.36,144.4 -50.56,0.66 -97.31,-15.84 -134.78,-44.1 -52.33,-39.46 -86.48,-101.82 -87.37,-172.4 -1.25,-97.5 61.32,-180.96 148.97,-210.61" /><path
         id="path102"
         style="fill:#1a598c;fill-opacity:1;fill-rule:nonzero;stroke:none"
         d="m 1480.72,3547.93 43.41,-33.61 c -40.72,-52.49 -104.71,-85.93 -176.25,-85.01 -23.62,0.3 -46.31,4.33 -67.52,11.51 l 17.6,52 c 15.91,-5.38 32.92,-8.4 50.63,-8.63 53.64,-0.69 101.61,24.38 132.13,63.74" /><path
         id="path104"
         style="fill:#2273b5;fill-opacity:1;fill-rule:nonzero;stroke:none"
         d="m 1556.9,3723.54 -51.6,-18.76 0.04,-0.09 c 6.84,-18.85 10.05,-38.61 9.79,-58.19 -0.48,-37.17 -13.25,-71.3 -34.41,-98.57 l 43.41,-33.61 c 28.21,36.37 45.25,81.9 45.88,131.49 0.35,26.86 -4.12,52.99 -13.11,77.73" /><path
         id="path106"
         style="fill:#4da8f2;fill-opacity:1;fill-rule:nonzero;stroke:none"
         d="m 1218.76,3823.84 c 37.47,28.26 84.22,44.76 134.78,44.1 93.82,-1.21 173.12,-61.15 203.36,-144.4 l -51.56,-18.85 -0.04,0.09 c -22.69,62.44 -82.14,107.38 -152.48,108.28 -38.26,0.48 -73.63,-12.14 -101.87,-33.72 l -32.19,44.5" /><path
         id="path108"
         style="fill:#e3f2ff;fill-opacity:1;fill-rule:nonzero;stroke:none"
         d="m 1797.31,2727.12 c 0.25,19.52 9.64,36.79 24.04,47.79 10.49,8.01 23.64,12.71 37.85,12.53 26.14,-0.34 48.23,-17.04 56.66,-40.24 l 0.02,-0.03 c 2,-5.52 3.23,-11.4 3.56,-17.53 h -0.01 c 0.08,-1.35 0.11,-2.72 0.09,-4.09 -0.08,-5.92 -1.04,-11.61 -2.68,-17.01 -2.19,-7.19 -5.62,-13.83 -10.11,-19.62 -1.64,-2.12 -3.43,-4.11 -5.33,-6 -11.23,-11.11 -26.72,-17.91 -43.77,-17.69 -4.51,0.06 -8.88,0.64 -13.1,1.62 -1.94,0.45 -3.86,0.96 -5.72,1.59 -24.41,8.25 -41.85,31.51 -41.5,58.68 z m 142.6,-1.84 c 0.02,1.37 -0.03,2.72 -0.08,4.07 l -0.03,1.39 c -0.43,8.19 -2.08,16.05 -4.76,23.43 -11.24,30.94 -40.71,53.21 -75.57,53.66 -18.79,0.25 -36.16,-5.88 -50.08,-16.38 -19.45,-14.67 -32.14,-37.84 -32.47,-64.07 -0.46,-36.23 22.79,-67.24 55.36,-78.26 v -0.01 c 7.88,-2.66 16.31,-4.16 25.09,-4.27 9.97,-0.13 19.54,1.54 28.42,4.7 14.78,5.27 27.62,14.69 37.07,26.88 9.24,11.92 15.26,26.48 16.71,42.37 0.2,2.15 0.31,4.31 0.34,6.49" /><path
         id="path110"
         style="fill:#78c2ff;fill-opacity:1;fill-rule:nonzero;stroke:none"
         d="m 2231.18,3173.12 h -417.46 c -56.23,0 -101.82,45.58 -101.82,101.81 v 491.21 c 0,56.24 45.59,101.82 101.82,101.82 h 417.46 c 56.23,0 101.81,-45.58 101.81,-101.82 v -491.21 c 0,-56.23 -45.58,-101.81 -101.81,-101.81" /><path
         id="path112"
         style="fill:#b3dcff;fill-opacity:1;fill-rule:nonzero;stroke:none"
         d="m 1568.08,3284 h -406.67 c -12.78,0 -23.14,10.37 -23.14,23.14 v 2.94 c 0,12.78 10.36,23.14 23.14,23.14 h 406.67 c 12.78,0 23.15,-10.36 23.15,-23.14 v -2.94 c 0,-12.77 -10.37,-23.14 -23.15,-23.14" /><path
         id="path114"
         style="fill:#b3dcff;fill-opacity:1;fill-rule:nonzero;stroke:none"
         d="m 1568.08,3173.12 h -406.67 c -12.78,0 -23.14,10.36 -23.14,23.13 v 2.94 c 0,12.78 10.36,23.14 23.14,23.14 h 406.67 c 12.78,0 23.15,-10.36 23.15,-23.14 v -2.94 c 0,-12.77 -10.37,-23.13 -23.15,-23.13" /><path
         id="path116"
         style="fill:#73baf4;fill-opacity:1;fill-rule:nonzero;stroke:none"
         d="m 4029.7,2241.65 h -202.42 v 653.17 h 43.05 c -0.69,-17.44 0.41,-33.87 5.7,-35.69 1.45,-0.5 3.62,-0.7 6.34,-0.7 6.27,0 15.49,1.09 25.68,2.19 10.2,1.09 21.37,2.19 31.56,2.19 6.58,0 12.76,-0.46 18,-1.67 6.09,-1.41 15.11,-1.97 25.44,-1.97 31.96,0.01 76.31,5.32 83.96,6.98 5.25,1.13 8.29,6.97 9.14,13.17 18.74,-14.11 30.86,-36.54 30.86,-61.81 v -498.54 c 0,-42.7 -34.62,-77.32 -77.31,-77.32" /><path
         id="path118"
         style="fill:#5099e0;fill-opacity:1;fill-rule:nonzero;stroke:none"
         d="m 3882.37,2858.43 c -2.72,0 -4.89,0.2 -6.34,0.7 -5.29,1.82 -6.39,18.25 -5.7,35.69 h 159.37 c 17.43,0 33.52,-5.77 46.45,-15.5 -0.85,-6.2 -3.89,-12.04 -9.14,-13.17 -7.65,-1.66 -52,-6.97 -83.96,-6.98 -10.33,0 -19.35,0.56 -25.44,1.97 -5.24,1.21 -11.42,1.67 -18,1.67 -10.19,0 -21.36,-1.1 -31.56,-2.19 -10.19,-1.1 -19.41,-2.19 -25.68,-2.19" /><path
         id="path120"
         style="fill:#6eb8f5;fill-opacity:1;fill-rule:nonzero;stroke:none"
         d="M 3827.28,2241.65 H 3607.5 c 10.3,13.69 16.42,30.7 16.42,49.11 v 498.56 c 0,45.12 -36.72,81.83 -81.84,81.83 h -384.15 c 14.06,14.6 33.81,23.67 55.67,23.67 h 613.68 v -653.17 m -231.53,0 H 3213.6 c -42.69,0 -77.3,34.62 -77.3,77.32 v 498.54 c 0,16.61 5.23,31.99 14.14,44.59 h 391.64 c 40.13,0 72.78,-32.65 72.78,-72.78 v -498.56 c 0,-18.91 -7.25,-36.15 -19.11,-49.11" /><path
         id="path122"
         style="fill:#63b3f5;fill-opacity:1;fill-rule:nonzero;stroke:none"
         d="m 3607.5,2241.65 h -11.75 c 11.86,12.96 19.11,30.2 19.11,49.11 v 498.56 c 0,40.13 -32.65,72.78 -72.78,72.78 h -391.64 c 2.27,3.21 4.77,6.23 7.49,9.05 h 384.15 c 45.12,0 81.84,-36.71 81.84,-81.83 v -498.56 c 0,-18.41 -6.12,-35.42 -16.42,-49.11" /><path
         id="path124"
         style="fill:#e3f2ff;fill-opacity:1;fill-rule:nonzero;stroke:none"
         d="m 3531.1,2540.04 h -267.8 c -16.11,0 -29.17,13.06 -29.17,29.16 v 218.41 c 0,16.11 13.06,29.16 29.17,29.16 h 267.8 c 16.12,0 29.17,-13.05 29.17,-29.16 V 2569.2 c 0,-16.1 -13.05,-29.16 -29.17,-29.16" /><path
         id="path126"
         style="fill:#e3f2ff;fill-opacity:1;fill-rule:nonzero;stroke:none"
         d="m 4017.45,2742.96 h -385.5 c -9.44,0 -17.09,7.65 -17.09,17.09 v 39.64 c 0,9.43 7.65,17.08 17.09,17.08 h 385.5 c 9.43,0 17.08,-7.65 17.08,-17.08 v -39.64 c 0,-9.44 -7.65,-17.09 -17.08,-17.09" /><path
         id="path128"
         style="fill:#e3f2ff;fill-opacity:1;fill-rule:nonzero;stroke:none"
         d="m 4017.45,2627.49 h -385.5 c -9.44,0 -17.09,7.65 -17.09,17.09 v 39.64 c 0,9.44 7.65,17.09 17.09,17.09 h 385.5 c 9.43,0 17.08,-7.65 17.08,-17.09 v -39.64 c 0,-9.44 -7.65,-17.09 -17.08,-17.09" /><path
         id="path130"
         style="fill:#e3f2ff;fill-opacity:1;fill-rule:nonzero;stroke:none"
         d="m 4019,2331.04 h -148.68 c -8.57,0 -15.53,6.95 -15.53,15.52 v 7.04 c 0,8.58 6.96,15.53 15.53,15.53 H 4019 c 8.59,0 15.53,-6.95 15.53,-15.53 v -7.04 c 0,-8.57 -6.94,-15.52 -15.53,-15.52" /><path
         id="path132"
         style="fill:#eea886;fill-opacity:1;fill-rule:nonzero;stroke:none"
         d="m 3920.21,2082.89 c 0,0 -15.5,27.11 9.07,99.78 23.77,70.27 106.02,63.9 132.17,18.87 26.14,-45.02 17.31,-72.98 -21.18,-123.82 -38.48,-50.83 -104.09,-18.07 -120.06,5.17" /><path
         id="path134"
         style="fill:#eea886;fill-opacity:1;fill-rule:nonzero;stroke:none"
         d="m 4111.27,832.711 c 0,0 4.07,-29.852 4.58,-34.332 0.51,-4.477 45.28,2.652 45.28,2.652 l 3.63,35.508 c 0,0 -47.89,0.371 -53.49,-3.828" /><path
         id="path136"
         style="fill:#5377b3;fill-opacity:1;fill-rule:nonzero;stroke:none"
         d="m 4115.37,802.18 c 0,0 -14.19,-17.989 -27.91,-25.821 -13.72,-7.839 -35.27,-10.949 -43.39,-19.058 -5.86,-5.852 -21.33,-31.071 35.66,-30.559 56.98,0.508 84.45,-3.562 90.55,6.11 6.12,9.66 -8.82,71.347 -8.82,71.347 0,0 -13.96,-3.937 -46.09,-2.019" /><path
         id="path138"
         style="fill:#eea886;fill-opacity:1;fill-rule:nonzero;stroke:none"
         d="m 3801.26,832.711 c 0,0 4.07,-29.852 4.58,-34.332 0.51,-4.477 45.28,2.652 45.28,2.652 l 3.63,35.508 c 0,0 -47.89,0.371 -53.49,-3.828" /><path
         id="path140"
         style="fill:#5b83c2;fill-opacity:1;fill-rule:nonzero;stroke:none"
         d="m 3805.36,802.18 c 0,0 -14.18,-17.989 -27.9,-25.821 -13.72,-7.839 -64.21,-14.277 -72.32,-22.39 -5.86,-5.86 -15.6,-29.438 64.58,-27.227 56.96,1.567 84.46,-3.562 90.56,6.11 6.11,9.66 -8.83,71.347 -8.83,71.347 0,0 -17.7,-3.16 -46.09,-2.019" /><path
         id="path142"
         style="fill:#2f4563;fill-opacity:1;fill-rule:nonzero;stroke:none"
         d="m 4096.19,1575.77 c 0,0 22.96,-71.34 19.94,-132.82 -3.02,-61.48 11.87,-128.75 17.95,-192.97 6.79,-71.59 34.57,-241.08 35.58,-279.371 1,-38.308 -4.32,-160.589 -4.32,-160.589 l -55.59,-1.348 c 0,0 -46.7,296.308 -58.79,326.548 -12.1,30.23 -72.07,245.78 -74.09,269.97 -2.02,24.18 119.32,170.58 119.32,170.58" /><path
         id="path144"
         style="fill:#354c70;fill-opacity:1;fill-rule:nonzero;stroke:none"
         d="m 3865.66,1583.19 c 0,0 -33.75,-188.62 -37.78,-226.25 -4.03,-37.62 -6.72,-182.09 -8.74,-205.59 -2.01,-23.53 -13.44,-307.748 -24.18,-342.678 h 61.99 c 0,0 63.66,206.608 63.66,304.378 0,97.75 42.14,212.52 69.36,277.02 27.21,64.5 89.49,66.02 106.22,185.7 0,0 -207.88,45.38 -230.53,7.42" /><path
         id="path146"
         style="fill:#eea886;fill-opacity:1;fill-rule:nonzero;stroke:none"
         d="m 3942.7,2063.7 c 0,0 6.99,-20.35 0,-34.87 -7.01,-14.53 89.34,-5.81 89.34,-5.81 0,0 -4.35,30.01 8.23,54.7 12.59,24.7 -97.57,-14.02 -97.57,-14.02" /><path
         id="path148"
         style="fill:#2b3b57;fill-opacity:1;fill-rule:nonzero;stroke:none"
         d="m 4100.66,1560.22 c 0,0 -34.64,-35.59 -238.1,5.55 l 3.1,17.42 231.29,-8.71 3.71,-14.26" /><path
         id="path150"
         style="fill:#eea886;fill-opacity:1;fill-rule:nonzero;stroke:none"
         d="m 3928.12,2024.11 c 0,0 -35.59,-3.63 -45.76,-5.57 -10.17,-1.94 -78.6,12.24 -92.64,13.7 -14.05,1.45 -73.91,42.47 -75.84,47.31 -1.95,4.84 -36.43,92.15 -38.36,111.04 -1.94,18.88 -33.6,9.13 -30.88,-3.89 5.08,-24.34 11.6,-83.42 15.17,-100.54 3.86,-18.48 14.2,-60.36 20.01,-65.52 5.81,-5.15 59.71,-46.16 112.48,-63.58 52.78,-17.43 92.5,-43.1 92.5,-43.1 h 260.08 c 0,0 101.16,144.6 103.33,166.39 2.18,21.79 -70.65,166.58 -85.17,184.75 -14.53,18.14 -35.54,-5.94 -35.54,-5.94 0,0 43.53,-127.69 49.34,-145.84 5.8,-18.15 -50.63,-97.92 -66.12,-98.16 -15.5,-0.25 -55.28,4.83 -72.95,5.56 -17.67,0.73 -36.31,8.47 -36.31,8.47 l -73.34,-5.08" /><path
         id="path152"
         style="fill:#ff7e55;fill-opacity:1;fill-rule:nonzero;stroke:none"
         d="m 3816.04,1927.52 c 0,0 31.83,-21.16 34.73,-57.47 2.9,-36.32 14.52,-93.68 20.33,-113.28 5.81,-19.62 -5.07,-161.96 -6.53,-172.12 -1.45,-10.17 201.25,-34.32 232.38,-10.17 0,0 8.71,132.9 12.35,170.67 3.63,37.75 21.05,129.25 26.86,141.6 5.81,12.35 76.25,111.15 79.16,124.18 0,0 -36.44,58.09 -62.59,58.82 0,0 -41.52,-48.66 -55.05,-50.83 -13.54,-2.18 -96.52,13.02 -96.54,13.15 0,0 -9.05,-12.33 -57.19,2.2 0,0 -57.35,-6.48 -66.67,-7.67 -11.3,-1.44 -89.82,9.86 -89.82,9.86 0,0 -31.49,-53.19 -25.98,-80.05 l 54.56,-28.89" /><path
         id="path154"
         style="fill:#eea886;fill-opacity:1;fill-rule:nonzero;stroke:none"
         d="m 3677.33,2179.24 c 0,0 -7.11,33.65 1.46,43.32 4.87,5.5 16.58,20.06 17.66,22.21 1.07,2.12 13.64,9.35 13.64,12.84 0,3.46 -12.31,7.75 -23.01,-2.15 -10.69,-9.89 -17.38,-12.04 -21.67,-10.97 -4.28,1.08 -10.43,36.65 -10.97,45.48 -0.53,8.83 -3.93,32.1 -9.46,30.5 -5.52,-1.61 -5.24,-11.78 -5.24,-11.78 0,0 -6.43,17.67 -10.71,14.18 -4.27,-3.48 -3.75,-12.03 -3.75,-12.03 0,0 -8.01,9.89 -10.16,2.68 -2.14,-7.23 0,-13.66 0,-13.66 0,0 -8.29,4.55 -8.83,-6.68 -0.53,-11.24 2.41,-44.14 8.3,-55.9 5.88,-11.78 27.91,-42.57 30.54,-54.59 2.62,-12.04 32.2,-3.45 32.2,-3.45" /><path
         id="path156"
         style="fill:#eea886;fill-opacity:1;fill-rule:nonzero;stroke:none"
         d="m 4134.59,2238.34 c 0,0 -24.2,40.68 -32.42,44.31 -8.23,3.63 -19.86,5.69 -30.02,12.96 -10.17,7.25 -23.61,13.3 -22.88,15.72 0.73,2.42 12.71,1.45 25.54,-4.11 12.83,-5.57 18.46,-2.88 19.67,0.03 1.21,2.9 -6.84,23.4 -10.71,28.26 -3.88,4.83 -31.48,32.6 -26.88,36.71 4.6,4.11 22.51,-11.15 25.42,-14.29 0,0 -14.28,30.02 -8.71,31.47 5.57,1.45 15.98,-9.19 15.98,-9.19 0,0 -1.21,25.65 26.39,-15.98 0,0 -5.81,13.8 2.65,9.2 8.48,-4.6 16.71,-30.5 19.37,-43.58 2.66,-13.07 14.74,-54.71 25.05,-64.75 10.29,-10.05 -28.45,-26.76 -28.45,-26.76" /><path
         id="path158"
         style="fill:#353a3d;fill-opacity:1;fill-rule:nonzero;stroke:none"
         d="m 4040.27,2077.72 c 0,0 -12.75,-1.12 -39.86,8.24 -27.11,9.36 -29.14,56.76 -35,51.15 -11.96,-11.46 -23.26,-3.55 -27.77,3.23 0,0 13.23,17.43 7.1,25.82 -6.14,8.39 -16.13,14.52 -16.13,14.52 0,0 19.08,91.92 105.85,50.04 101.67,-49.07 5.81,-153 5.81,-153" /><path
         id="path160"
         style="fill:#ff7e55;fill-opacity:1;fill-rule:nonzero;stroke:none"
         d="m 3942.7,2028.83 3.05,13.28 c 0,0 55.38,1.12 85.61,-3.25 l 3.17,-15.88 c 0,0 -38.69,-17.55 -91.83,5.85" /><path
         id="path162"
         style="fill:#eea886;fill-opacity:1;fill-rule:nonzero;stroke:none"
         d="m 3956.36,2148.73 c 5.03,8.36 23.63,14 25.82,-9.68 1.69,-18.36 -33.25,-38.41 -33.58,-21.3 -0.32,17.1 4.41,25.41 7.76,30.98" /><path
         id="path164"
         style="fill:#e55353;fill-opacity:1;fill-rule:nonzero;stroke:none"
         d="m 3676.02,2186.88 c 0,0 -19.98,-0.49 -29.67,-9.24 0,0 -0.64,-5.57 1.61,-9.95 0,0 17.32,8.08 30.6,9.6 0,0 -0.22,7.26 -2.54,9.59" /><path
         id="path166"
         style="fill:#353a3d;fill-opacity:1;fill-rule:nonzero;stroke:none"
         d="m 3652.46,2181.89 c -1.84,-4.37 0.2,-9.41 4.57,-11.25 4.38,-1.85 9.42,0.2 11.26,4.57 1.85,4.38 -0.2,9.42 -4.57,11.26 -4.37,1.85 -9.41,-0.2 -11.26,-4.58" /><path
         id="path168"
         style="fill:#71b8f0;fill-opacity:1;fill-rule:nonzero;stroke:none"
         d="m 1502.06,2177.38 h -95.29 v 280.59 h 95.29 v -280.59 m -104.35,0 h -30.09 c -29.99,0 -54.31,24.32 -54.31,54.31 v 171.96 c 0,29.99 24.32,54.32 54.31,54.32 h 30.09 v -280.59" /><path
         id="path170"
         style="fill:#51a1f5;fill-opacity:1;fill-rule:nonzero;stroke:none"
         d="m 1397.71,2177.38 h 9.0586 v 280.59 h -9.0586 z" /><path
         id="path172"
         style="fill:#68b1f5;fill-opacity:1;fill-rule:nonzero;stroke:none"
         d="m 2023.81,2177.38 h -521.75 v 280.59 h 208.21 c -1.88,-5.75 -2.89,-11.88 -2.89,-18.24 v -171.98 c 0,-32.44 26.39,-58.82 58.83,-58.82 h 306.92 c -8.61,-18.62 -27.46,-31.55 -49.32,-31.55 m 52.56,40.59 h -310.16 c -27.45,0 -49.78,22.33 -49.78,49.78 v 171.98 c 0,6.43 1.23,12.59 3.46,18.24 h 303.92 c 29.99,0 54.3,-24.33 54.3,-54.32 v -171.96 c 0,-4.74 -0.6,-9.34 -1.74,-13.72" /><path
         id="path174"
         style="fill:#51a1f5;fill-opacity:1;fill-rule:nonzero;stroke:none"
         d="m 2073.13,2208.93 h -306.92 c -32.44,0 -58.83,26.38 -58.83,58.82 v 171.98 c 0,6.36 1.01,12.49 2.89,18.24 h 9.62 c -2.23,-5.65 -3.46,-11.81 -3.46,-18.24 v -171.98 c 0,-27.45 22.33,-49.78 49.78,-49.78 h 310.16 c -0.82,-3.14 -1.91,-6.16 -3.24,-9.04" /><path
         id="path176"
         style="fill:#eea886;fill-opacity:1;fill-rule:nonzero;stroke:none"
         d="m 718.949,1630.97 c 0,0 3.024,-16.42 12.242,-18.85 7.836,-2.06 16.477,-10.39 19.141,-12.94 3.559,-3.42 18.414,-9.85 14.141,-14.39 -4.27,-4.54 -24.993,9.42 -29.922,11.48 -4.934,2.05 2.129,-20.76 0.137,-25.96 -1.993,-5.19 -40.458,-14.74 -43.493,1.49 -3.031,16.22 4.434,35.55 3.336,38.31 -1.097,2.74 -2.672,11.71 -2.672,11.71 l 27.09,9.15" /><path
         id="path178"
         style="fill:#eea886;fill-opacity:1;fill-rule:nonzero;stroke:none"
         d="m 734.871,1574.27 c 0,0 5.988,-50.3 3.586,-53.98 -2.406,-3.68 -5.152,-3.84 -5.906,0.83 -0.758,4.68 -7.196,48.43 -7.196,48.43 0,0 -2.91,-60.72 -4.222,-64.16 -0.766,-2.03 -6.059,-2.66 -6.699,-0.19 -0.633,2.47 -1.188,62.81 -1.188,62.81 0,0 -2.82,-56.69 -4.777,-59.24 -1.715,-2.25 -6.723,-1.6 -6.797,2.62 -0.078,4.22 -0.438,56.96 -0.438,56.96 0,0 -4.648,-41.12 -7.578,-42.31 -1.793,-0.73 -6.343,-1.48 -4.812,9.1 1.531,10.56 2.527,35.9 2.527,35.9 l 43.5,3.23" /><path
         id="path180"
         style="fill:#eea886;fill-opacity:1;fill-rule:nonzero;stroke:none"
         d="m 1259.03,2247.92 c 0,0 8.26,15.42 11.08,27.73 2.83,12.32 18.19,28.72 24.45,32.59 6.26,3.89 51.63,36.4 56.88,36.4 5.25,-0.01 2.2,-10.09 -2.34,-13.03 -4.54,-2.94 -41.39,-31.65 -41.39,-31.65 0,0 45.85,31.64 50.64,30.77 4.79,-0.85 8.2,-6.94 3.06,-13.21 0,0 10.45,-6.88 -0.44,-15.23 l -21.67,-16.75 c 0,0 12.75,6.63 8.01,-3.62 -2.52,-5.45 -29.17,-21.35 -33.44,-26.22 -4.27,-4.86 -37.89,-21.24 -37.89,-21.24 l -16.95,13.46" /><path
         id="path182"
         style="fill:#eea886;fill-opacity:1;fill-rule:nonzero;stroke:none"
         d="m 990.348,838.602 h 11.362 c 0,0 -3.784,42.918 6.74,43.347 10.51,0.422 36.6,-34.929 52.18,-40.41 15.58,-5.469 95.53,-10.078 95.95,4.641 0.43,14.718 -30.71,20.621 -40.39,24.832 -9.68,4.199 -56.82,50.078 -65.23,55.547 -8.43,5.472 -22.32,33.242 -22.32,33.242 h -42.917 c 0,0 -4.707,-23.301 -7.41,-42.121 -1.012,-6.969 -1.743,-13.309 -1.848,-17.641 -0.418,-15.988 13.883,-61.437 13.883,-61.437" /><path
         id="path184"
         style="fill:#eea886;fill-opacity:1;fill-rule:nonzero;stroke:none"
         d="m 792.855,847.09 h 9.473 v 39.961 c 7.887,-0.66 34.41,-25.762 42.617,-33.031 8.2,-7.25 19.457,-6.93 54.024,-9.129 34.562,-2.192 37.824,18.488 32.355,25.539 -5.469,7.05 -23.148,10.129 -32.355,14.519 -9.199,4.41 -45.5,45.34 -55.184,55.031 -9.676,9.68 -15.578,37.411 -15.578,37.411 l -40.394,-3.512 c 0,0 0.257,-25.379 -4.344,-46.66 v -0.008 l -0.047,-0.16 c -0.391,-1.832 -0.82,-3.602 -1.293,-5.332 -6,-22.129 10.726,-74.629 10.726,-74.629" /><path
         id="path186"
         style="fill:#eea886;fill-opacity:1;fill-rule:nonzero;stroke:none"
         d="m 887.367,2182.58 c 0,0 -19.722,-41.6 -9.187,-75.62 0,0 -60.668,8.27 -62.477,15.36 -1.812,7.1 7.598,70.89 0.586,90.45 -7.008,19.57 71.078,-30.19 71.078,-30.19" /><path
         id="path188"
         style="fill:#ff7e55;fill-opacity:1;fill-rule:nonzero;stroke:none"
         d="m 888.809,2120.74 c 0,0 35.113,-15.08 51.136,-19.7 16.024,-4.65 48.938,-22.82 41.887,-81.72 -7.051,-58.9 -20.926,-109.42 -26.457,-134.54 -5.535,-25.13 -7.91,-89.94 -4.184,-121.77 0,0 -87.878,-14.99 -187.925,13.61 0,0 21.89,52.26 22.433,66.13 0.539,13.9 -50.758,132.26 -52.226,150.47 -1.465,18.21 -7.715,98.5 20.797,114.07 28.511,15.57 50.511,11.66 62.621,18.67 12.113,7.01 55.476,1.64 71.918,-5.22" /><path
         id="path190"
         style="fill:#ff7e55;fill-opacity:1;fill-rule:nonzero;stroke:none"
         d="m 888.637,2029.13 c 0,0 -13.477,70.75 55.101,70.64 60.292,-0.11 117.242,11.32 126.792,16.63 9.55,5.3 46.42,23.42 65.79,43.34 19.36,19.91 124.28,99.7 124.28,99.7 l 29,-29.33 c 0,0 -110.68,-120.19 -128.52,-131.9 -17.85,-11.71 -167.674,-95.39 -186.685,-98.02 -19.008,-2.65 -72.387,-17.16 -85.758,28.94" /><path
         id="path192"
         style="fill:#ff7e55;fill-opacity:1;fill-rule:nonzero;stroke:none"
         d="m 673.125,1810.54 c -2.055,-24.92 11.508,-196.94 11.508,-196.94 l 48.773,-5.62 c 0,0 -3.465,169.89 -6.199,209.08 -0.805,11.56 1.871,29.25 6.031,48.43 v 0.01 c 2.637,12.19 5.887,24.98 9.239,37.18 9.222,33.7 19.168,62.96 19.168,62.96 0,0 54.617,142.08 -13.907,136.34 0,0 -25.465,-26.26 -36.238,-69.33 -10.781,-43.09 -23.117,-107.65 -23.59,-133.37 -0.469,-25.73 -13.277,-70.42 -14.785,-88.74" /><path
         id="path194"
         style="fill:#eddad3;fill-opacity:1;fill-rule:nonzero;stroke:none"
         d="m 939.43,1764.4 c 0,0 15.738,-37.21 17.129,-46.62 1.386,-9.39 50.731,-132.23 54.161,-168.18 3.47,-36.34 13.89,-133.33 17.59,-147.22 3.71,-13.89 -8.33,-75.92 -10.18,-89.81 -1.86,-13.89 -0.93,-240.73 15.74,-352.761 0,0 -38.89,-16.668 -68.518,0 0,0 -49.075,174.991 -46.293,275.911 2.777,100.93 15.582,143.51 -0.079,184.26 -15.66,40.73 -107.324,162.95 -116.582,175.92 -9.261,12.96 -67.265,84.59 -12.339,162.19 54.925,77.6 149.371,6.31 149.371,6.31" /><path
         id="path196"
         style="fill:#eddad3;fill-opacity:1;fill-rule:nonzero;stroke:none"
         d="m 749.871,1432.94 c 4.875,-32.41 -0.254,-75 -10.43,-193.53 -10.195,-118.5 17.821,-262.012 17.821,-262.012 35.179,-12.039 75.687,0 75.687,0 -0.929,8.332 0,288.882 0,313.882 0,25 7.184,53.37 9.028,82.07 1.265,19.55 10.363,55.61 20.597,92.41 3.071,11.03 6.235,22.11 9.321,32.84 v 0.01 c 1.734,6.02 3.425,11.94 5.082,17.66 14.414,50 33.804,243.06 33.804,243.06 0,0 -107.457,86.55 -159.769,5.06 -52.321,-81.46 -25.461,-140.72 -23.61,-150.9 1.844,-10.19 17.594,-148.15 22.469,-180.55" /><path
         id="path198"
         style="fill:#ff7e55;fill-opacity:1;fill-rule:nonzero;stroke:none"
         d="m 958.098,1910.03 c 0,0 -9.547,-153.39 19.011,-239.71 0,0 -113.472,-18.92 -258.23,29.86 0,0 39.812,103.11 38.441,119.22 -1.379,16.12 -43.277,203.87 -23.164,245.88 20.114,42.01 216.797,-17.6 223.942,-155.25" /><path
         id="path200"
         style="fill:#eea886;fill-opacity:1;fill-rule:nonzero;stroke:none"
         d="m 865.41,2353.59 c 25.942,1.05 92.184,-9 79.844,-108.82 -12.34,-99.83 -48.383,-91.19 -84.094,-77.92 -35.699,13.26 -73.484,93.97 -71.98,114.75 1.504,20.78 2.211,69.01 76.23,71.99" /><path
         id="path202"
         style="fill:#353a3d;fill-opacity:1;fill-rule:nonzero;stroke:none"
         d="m 944.883,2290.91 c 0,0 -31.664,-34.87 -61.445,-41.59 0,0 -25.348,-38.5 -65.219,-45.88 0,0 -77.684,85.86 -3.153,140.8 74.536,54.94 132.497,-22.73 129.817,-53.33" /><path
         id="path204"
         style="fill:#eea886;fill-opacity:1;fill-rule:nonzero;stroke:none"
         d="m 889.922,2262.7 c -0.574,5.54 -11.926,17.57 -22.192,5.78 -10.269,-11.79 4.711,-42.11 11.172,-42.58 6.465,-0.47 13.211,15.75 11.02,36.8" /><path
         id="path206"
         style="fill:#c9b9b3;fill-opacity:1;fill-rule:nonzero;stroke:none"
         d="m 794.426,1607.06 c 0.832,-1.85 54.375,-120.69 68.148,-141.3 3.071,11.03 6.235,22.11 9.321,32.84 v 0.01 c 0,0 -75.68,105.83 -77.469,108.45" /><path
         id="path208"
         style="fill:#ba5c3d;fill-opacity:1;fill-rule:nonzero;stroke:none"
         d="m 730.84,1987.31 c 0,0 -3.785,-75.51 2.398,-121.81 2.637,12.19 5.887,24.98 9.239,37.18 -0.266,1.72 -10.645,72.72 -11.637,84.63" /><path
         id="path210"
         style="fill:#353a3d;fill-opacity:1;fill-rule:nonzero;stroke:none"
         d="m 845.43,2360.06 c 0,0 -90.274,2.07 -76.707,-153.04 10.422,-119.22 -33.414,-178.1 -27.243,-195.49 6.176,-17.37 27.348,-46.41 74.735,-20.22 47.394,26.19 16.195,162.82 41.656,215.99 25.457,53.17 81.348,77.81 81.348,77.81 0,0 -9.809,90.52 -93.789,74.95" /><path
         id="path212"
         style="fill:#ff7e55;fill-opacity:1;fill-rule:nonzero;stroke:none"
         d="m 967.242,2045.97 c 0,0 20.61,-73.62 25.512,-91.01 6.367,-22.6 -23.191,-65.12 -49.375,-52.06 -26.184,13.08 23.863,143.07 23.863,143.07" /><path
         id="path214"
         style="fill:#dbcac3;fill-opacity:1;fill-rule:nonzero;stroke:none"
         d="m 792.855,847.09 h 9.473 v 39.961 c 7.887,-0.66 34.41,-25.762 42.617,-33.031 8.2,-7.25 19.457,-6.93 54.024,-9.129 34.562,-2.192 37.824,18.488 32.355,25.539 -5.469,7.05 -23.148,10.129 -32.355,14.519 -36.973,-1.969 -82.094,50.012 -103.754,49.903 -11.508,-0.063 -11.399,-6.43 -11.746,-7.633 v -0.008 l -0.047,-0.16 c -0.391,-1.832 -0.82,-3.602 -1.293,-5.332 -6,-22.129 10.726,-74.629 10.726,-74.629" /><path
         id="path216"
         style="fill:#dbcac3;fill-opacity:1;fill-rule:nonzero;stroke:none"
         d="m 990.348,838.602 h 11.362 c 0,0 -3.784,42.918 6.74,43.347 10.51,0.422 36.6,-34.929 52.18,-40.41 15.58,-5.469 95.53,-10.078 95.95,4.641 0.43,14.718 -30.71,20.621 -40.39,24.832 -32.98,0.07 -86.61,36.367 -103.25,43.726 -16.627,7.364 -34.627,2.942 -34.627,2.942 -1.012,-6.969 -1.743,-13.309 -1.848,-17.641 -0.418,-15.988 13.883,-61.437 13.883,-61.437" /><path
         id="path218"
         style="fill:#c2bebc;fill-opacity:1;fill-rule:nonzero;stroke:none"
         d="m 3303.54,3923.33 -2.06,8.82 c 16,3.73 24.27,6.97 24.36,7 l 3.32,-8.42 c -0.36,-0.14 -8.98,-3.51 -25.62,-7.4" /><path
         id="path220"
         style="fill:#c2bebc;fill-opacity:1;fill-rule:nonzero;stroke:none"
         d="m 1789.04,4348.96 c -16.44,0.56 -33.01,0.84 -49.25,0.84 h -2.07 l -0.01,9.05 2.08,0.01 c 16.34,-0.01 33.02,-0.3 49.56,-0.86 z m -153.81,-3.14 -0.7,9.03 c 16.99,1.31 34.34,2.31 51.56,2.98 l 0.35,-9.05 c -17.11,-0.66 -34.34,-1.65 -51.21,-2.96 z m 256.23,-3.89 c -17.07,1.74 -34.28,3.21 -51.16,4.37 l 0.63,9.03 c 16.97,-1.17 34.28,-2.65 51.45,-4.4 z m -358.08,-8.08 -1.42,8.94 c 16.85,2.68 34.07,5.06 51.17,7.07 l 1.05,-9 c -16.98,-1.99 -34.07,-4.34 -50.8,-7.01 z m 459.86,-5.61 c -16.92,2.81 -34.01,5.39 -50.79,7.64 l 1.21,8.98 c 16.87,-2.28 34.05,-4.86 51.06,-7.69 z m -560.33,-14.78 -2.18,8.79 c 16.57,4.11 33.53,7.93 50.4,11.35 l 1.8,-8.87 c -16.74,-3.4 -33.57,-7.19 -50.02,-11.27 z m 661.13,-5.01 c -16.72,3.78 -33.62,7.36 -50.26,10.63 l 1.75,8.88 c 16.72,-3.29 33.71,-6.88 50.51,-10.69 z m -759.45,-24.06 -2.95,8.55 c 16.18,5.58 32.74,10.88 49.22,15.75 l 2.57,-8.67 c -16.35,-4.84 -32.78,-10.1 -48.84,-15.63 z m 859.01,-1.38 c -16.49,4.69 -33.18,9.2 -49.61,13.4 l 2.24,8.77 c 16.51,-4.22 33.28,-8.75 49.84,-13.47 z m 98.08,-30.69 c -16.2,5.53 -32.63,10.91 -48.84,15.98 l 2.7,8.64 c 16.29,-5.09 32.79,-10.49 49.06,-16.05 z m -1052.39,-5.73 -3.71,8.25 c 15.62,7.04 31.63,13.81 47.59,20.14 l 3.34,-8.41 c -15.84,-6.28 -31.72,-13 -47.22,-19.98 z M 2388.1,4216.7 c -15.84,6.3 -31.98,12.5 -47.99,18.42 l 3.14,8.49 c 16.08,-5.95 32.29,-12.17 48.2,-18.51 z m -1240.27,-16.41 -4.45,7.89 c 14.95,8.44 30.28,16.64 45.57,24.38 l 4.08,-8.08 c -15.16,-7.67 -30.37,-15.81 -45.2,-24.19 z m 1334.77,-24.03 c -15.41,7.06 -31.23,14.07 -47,20.81 l 3.57,8.32 c 15.83,-6.76 31.72,-13.8 47.2,-20.9 z m -1421.71,-30.3 -5.13,7.45 c 14.17,9.76 28.7,19.3 43.2,28.36 l 4.79,-7.68 c -14.38,-8.99 -28.8,-18.45 -42.86,-28.13 z m 1513.93,-15.04 c -14.79,7.81 -30.2,15.65 -45.79,23.31 l 4,8.12 c 15.65,-7.69 31.14,-15.57 46.02,-23.42 z m -1595.64,-46.8 -5.836,6.92 c 9.015,7.59 18.332,15.12 27.696,22.37 4.25,3.3 8.52,6.57 12.8,9.79 l 5.45,-7.22 c -4.25,-3.21 -8.48,-6.44 -12.71,-9.72 -9.267,-7.18 -18.482,-14.63 -27.4,-22.14 z m 1684.98,-4.1 c -5.91,3.48 -11.85,7.03 -17.82,10.64 -8.42,5.09 -17.32,10.32 -26.48,15.55 l 4.5,7.86 c 9.21,-5.27 18.18,-10.54 26.66,-15.66 5.94,-3.6 11.86,-7.12 17.73,-10.59 z m 90.61,-49.49 c -15.12,7.61 -30.5,15.69 -45.72,24.01 l 4.35,7.94 c 15.13,-8.27 30.41,-16.3 45.44,-23.87 z m -1849.735,-16.94 -6.621,6.17 c 11.719,12.57 23.965,24.94 36.395,36.76 l 6.242,-6.56 c -12.301,-11.69 -24.418,-23.94 -36.016,-36.37 z m 1943.625,-26.08 c -15.63,6.45 -31.57,13.38 -47.36,20.63 l 3.77,8.22 c 15.68,-7.2 31.51,-14.09 47.04,-20.48 z m 97.17,-35.15 c -16.14,5.01 -32.62,10.56 -48.98,16.5 l 3.08,8.5 c 16.23,-5.88 32.58,-11.38 48.59,-16.36 z m -2106.029,-17.64 -7.301,5.35 c 10.18,13.9 20.875,27.63 31.781,40.82 l 6.973,-5.77 c -10.789,-13.05 -21.375,-26.64 -31.453,-40.4 z m 2206.229,-7.9 c -16.59,3.27 -33.56,7.12 -50.45,11.44 l 2.24,8.77 c 16.73,-4.29 33.54,-8.09 49.95,-11.33 z m 102.58,-13.61 c -16.82,1.09 -34.16,2.82 -51.53,5.14 l 1.2,8.97 c 17.17,-2.3 34.3,-4 50.91,-5.08 z m 51.81,-1.36 -0.13,9.05 c 17.53,0.24 34.67,1.24 50.97,2.97 l 0.96,-9 c -16.58,-1.76 -34,-2.78 -51.8,-3.02 z m -2416.404,-63.08 -7.856,4.5 c 8.586,14.99 17.649,29.86 26.945,44.19 l 7.594,-4.93 c -9.207,-14.19 -18.183,-28.91 -26.683,-43.76 z m -46.141,-91.51 -8.281,3.65 c 6.976,15.82 14.406,31.56 22.07,46.79 l 8.086,-4.08 c -7.602,-15.08 -14.961,-30.69 -21.875,-46.36 z m -36.73,-95.74 -8.594,2.84 c 5.414,16.41 11.254,32.8 17.355,48.72 l 8.453,-3.25 c -6.05,-15.78 -11.843,-32.03 -17.214,-48.31 z m -27.77,-98.77 -8.812,2.07 c 3.949,16.83 8.289,33.68 12.894,50.08 l 8.715,-2.45 c -4.574,-16.28 -8.875,-33 -12.797,-49.7 z m -19.316,-100.81 -8.954,1.35 c 2.567,17.06 5.493,34.21 8.696,50.96 l 8.89,-1.7 c -3.183,-16.63 -6.089,-33.66 -8.632,-50.61 z m -11.344,-102 -9.027,0.66 c 1.257,17.17 2.851,34.48 4.73,51.45 l 9,-1 c -1.875,-16.86 -3.457,-34.05 -4.703,-51.11 z m -3.754,-102.58 h -9.051 c 0.008,17.17 0.324,34.54 0.949,51.65 l 9.047,-0.32 c -0.621,-17.01 -0.941,-34.28 -0.945,-51.33 z m -5.383,-103.22 c -1.223,17.06 -2.152,34.41 -2.762,51.58 l 9.047,0.32 c 0.606,-17.06 1.528,-34.31 2.742,-51.25 z m 11.207,-102.69 c -2.484,16.82 -4.695,34.06 -6.566,51.24 l 9,0.98 c 1.859,-17.07 4.051,-34.2 6.519,-50.9 z m 19.32,-101.53 c -3.871,16.41 -7.484,33.42 -10.738,50.57 l 8.895,1.68 c 3.226,-17.01 6.808,-33.89 10.652,-50.17 z m 28.993,-99.29 c -5.575,15.61 -10.914,32.18 -15.871,49.26 l 8.691,2.53 c 4.906,-16.91 10.191,-33.31 15.703,-48.75 l -8.523,-3.04" /><path
         id="path222"
         style="fill:#c2bebc;fill-opacity:1;fill-rule:nonzero;stroke:none"
         d="m 723.586,2778.96 c -3.836,7.5 -7.645,15.47 -11.32,23.68 l 8.261,3.7 c 3.614,-8.07 7.356,-15.9 11.118,-23.26 l -8.059,-4.12" /><path
         id="path224"
         style="fill:#78c2ff;fill-opacity:1;fill-rule:nonzero;stroke:none"
         d="m 1727.57,1981.43 h -69.6 v -252.84 h 69.6 v 252.84" /><path
         id="path226"
         style="fill:#78c2ff;fill-opacity:1;fill-rule:nonzero;stroke:none"
         d="m 1826.62,2006.93 h -69.61 v -278.34 h 69.61 v 278.34" /><path
         id="path228"
         style="fill:#78c2ff;fill-opacity:1;fill-rule:nonzero;stroke:none"
         d="m 1926.99,1953.96 h -69.6 v -225.37 h 69.6 v 225.37" /><path
         id="path230"
         style="fill:#78c2ff;fill-opacity:1;fill-rule:nonzero;stroke:none"
         d="m 2027.36,2058.42 h -69.6 v -329.83 h 69.6 v 329.83" /><path
         id="path232"
         style="fill:#78c2ff;fill-opacity:1;fill-rule:nonzero;stroke:none"
         d="m 2132.68,2025.57 h -69.6 v -296.98 h 69.6 v 296.98" /><path
         id="path234"
         style="fill:#78c2ff;fill-opacity:1;fill-rule:nonzero;stroke:none"
         d="m 2239.41,1981.43 h -69.6 v -252.84 h 69.6 v 252.84" /><path
         id="path236"
         style="fill:#78c2ff;fill-opacity:1;fill-rule:nonzero;stroke:none"
         d="m 2338.46,2006.93 h -69.6 v -278.34 h 69.6 v 278.34" /><path
         id="path238"
         style="fill:#78c2ff;fill-opacity:1;fill-rule:nonzero;stroke:none"
         d="m 2438.83,1953.96 h -69.6 v -225.37 h 69.6 v 225.37" /><path
         id="path240"
         style="fill:#e3f2ff;fill-opacity:1;fill-rule:nonzero;stroke:none"
         d="m 1408.23,2324.11 c 0.25,19.52 9.64,36.79 24.04,47.78 10.49,8.03 23.63,12.72 37.85,12.54 26.14,-0.33 48.23,-17.04 56.66,-40.24 l 0.02,-0.03 c 2,-5.52 3.22,-11.41 3.56,-17.52 h -0.01 c 0.07,-1.36 0.1,-2.72 0.08,-4.1 -0.07,-5.93 -1.04,-11.62 -2.68,-17.03 -2.19,-7.18 -5.62,-13.81 -10.1,-19.59 -1.64,-2.13 -3.44,-4.12 -5.34,-6 -11.23,-11.11 -26.71,-17.91 -43.76,-17.69 -4.52,0.06 -8.9,0.63 -13.13,1.62 -1.93,0.45 -3.83,0.95 -5.69,1.58 -24.41,8.26 -41.85,31.5 -41.5,58.68 z m 142.52,2.44 -0.03,1.18 c -0.43,8.19 -2.08,16.05 -4.76,23.43 -11.24,30.94 -40.71,53.21 -75.57,53.66 -18.79,0.25 -36.16,-5.87 -50.08,-16.38 -19.45,-14.67 -32.14,-37.83 -32.47,-64.07 -0.47,-36.23 22.79,-67.24 55.35,-78.27 7.89,-2.66 16.32,-4.16 25.1,-4.27 10.31,-0.13 20.19,1.68 29.32,5.05 14.4,5.34 26.91,14.59 36.17,26.54 9.18,11.82 15.17,26.26 16.68,42.02 0.21,2.26 0.34,4.54 0.37,6.84 0.02,1.43 -0.03,2.86 -0.08,4.27" /><path
         id="path242"
         style="fill:#7abdf4;fill-opacity:1;fill-rule:nonzero;stroke:none"
         d="m 3350.16,1125.2 h -544.89 c -38.38,0 -69.5,31.12 -69.5,69.5 v 142.46 h 683.89 V 1194.7 c 0,-38.38 -31.13,-69.5 -69.5,-69.5 m 69.5,221.01 h -683.89 v 126.56 h 683.89 v -126.56" /><path
         id="path244"
         style="fill:#67b5f5;fill-opacity:1;fill-rule:nonzero;stroke:none"
         d="m 2735.77,1337.16 h 683.891 v 9.0508 H 2735.77 Z" /><path
         id="path246"
         style="fill:#74bbf5;fill-opacity:1;fill-rule:nonzero;stroke:none"
         d="m 3419.66,1472.77 h -683.89 v 117.56 c 0,38.38 31.12,69.5 69.5,69.5 h 544.89 c 38.37,0 69.5,-31.12 69.5,-69.5 v -117.56" /><path
         id="path248"
         style="fill:#e3f2ff;fill-opacity:1;fill-rule:nonzero;stroke:none"
         d="m 3336.33,1189.72 h -244.07 c -23.48,0 -42.5,19.02 -42.5,42.49 v 330.45 c 0,23.47 19.02,42.5 42.5,42.5 h 244.07 c 23.47,0 42.5,-19.03 42.5,-42.5 v -330.45 c 0,-23.47 -19.03,-42.49 -42.5,-42.49" /><path
         id="path250"
         style="fill:#e3f2ff;fill-opacity:1;fill-rule:nonzero;stroke:none"
         d="m 2957.21,1545.93 h -124.98 c -14.39,0 -26.05,11.67 -26.05,26.05 v 7.13 c 0,14.39 11.66,26.05 26.05,26.05 h 124.98 c 14.38,0 26.04,-11.66 26.04,-26.05 v -7.13 c 0,-14.38 -11.66,-26.05 -26.04,-26.05" /><path
         id="path252"
         style="fill:#e3f2ff;fill-opacity:1;fill-rule:nonzero;stroke:none"
         d="m 2957.21,1435.36 h -124.98 c -14.39,0 -26.05,11.66 -26.05,26.05 v 7.13 c 0,14.39 11.66,26.05 26.05,26.05 h 124.98 c 14.38,0 26.04,-11.66 26.04,-26.05 v -7.13 c 0,-14.39 -11.66,-26.05 -26.04,-26.05" /></g></g></svg>